{
  "id": "worktemplate",
  "title": "Шаблоны",
  "is_enabled": true,
  "class_name": "WorkTemplate",
  "menu_group":"Разделы",
  "sort_order":2,
  "menu_group_order":1,  
  "pages":[
      {"id":"worktemplate","title":"Управление шаблонами","breadcrumbs":{"path":"/worktemplate","title":"Управление шаблонами"}}
   ]
}
