{
	"AddWorkTemplate":"Добавить шаблон",
	"exact5days":"Правильная пятидневка",
	"notexact5days":"Неправильная пятидневка",
	"workshifts":"Посменный",
	"IsOneCalendarWeekend":"Один из выходных - календарный",
	"WorkDays":"Рабочих дней",
	"Type":"Тип",
	"Weekends":"Выходных"
}