{
  "id": "department",
  "title": "Круги",
  "is_enabled": true,
  "class_name": "Department",
  "initial_load":true,
  "guest_load":true,
  "menu_part":true,
  "sort_order":2,
  "pages":[
      {"id":"import","title":"Импорт сотрудников","breadcrumbs":{"path":"/import","title":"Импорт сотрудников"},"sourceOnShow": "/modules/department/import.html"}
   ]
}
